iter	Accuracy	MultiClass
0	0.7721708379	1.51170009
1	0.810663765	1.323442559
2	0.8273939064	1.187314931
3	0.8306583243	1.075194139
4	0.8328346028	0.9836452471
5	0.8452121872	0.9039179418
6	0.8479325354	0.8421100443
7	0.8498367791	0.7876532403
8	0.8509249184	0.7384061116
9	0.8544613711	0.6955411626
10	0.8594940152	0.6577545679
11	0.8616702938	0.6236885833
12	0.8658868335	0.5927073598
13	0.8701033732	0.5643496189
14	0.8715995647	0.5406688425
15	0.8752720348	0.5174363044
16	0.8781284004	0.4997993333
17	0.8786724701	0.4813783499
18	0.8805767138	0.4657089834
19	0.8854733406	0.4545192257
20	0.8853373232	0.4403807322
21	0.8902339499	0.4261412398
22	0.89390642	0.4130400634
23	0.8951305767	0.4023820449
24	0.8982589771	0.3896655156
25	0.9009793254	0.3776764033
26	0.9030195865	0.3724915478
27	0.9049238303	0.3633442581
28	0.9066920566	0.354834278
29	0.9092763874	0.3505066849
30	0.9111806311	0.3446342907
31	0.9124047878	0.3369363684
32	0.9149891186	0.3311951613
33	0.9167573449	0.3249335948
34	0.9183895539	0.3179856337
35	0.9194776931	0.3125332394
36	0.9207018498	0.3083892936
37	0.9226060936	0.3026967057
38	0.9245103373	0.2960935089
39	0.9253264418	0.2915807869
40	0.9277747552	0.2865515849
41	0.9298150163	0.2825074533
42	0.9302230686	0.2782803276
43	0.9329434168	0.2749113438
44	0.9344396083	0.270783326
45	0.9341675734	0.2666443438
46	0.9362078346	0.2623979865
47	0.9370239391	0.2592116627
48	0.939336235	0.2569489687
49	0.9401523395	0.2536424185
50	0.9421926007	0.2500546447
51	0.9434167573	0.2467403399
52	0.9440968444	0.2430842069
53	0.946273123	0.2398582711
54	0.9473612622	0.2375109239
55	0.9494015234	0.235079988
56	0.949945593	0.2323981276
57	0.9503536453	0.229627972
58	0.9519858542	0.2260510915
59	0.9525299238	0.2234999642
60	0.9532100109	0.2210041928
61	0.954570185	0.2179866841
62	0.9557943417	0.2148390194
63	0.956882481	0.2121666768
64	0.9574265506	0.2094696855
65	0.9590587595	0.2072492422
66	0.9594668118	0.2051900257
67	0.9602829162	0.2033077699
68	0.9604189336	0.2010615112
69	0.9608269859	0.1985302296
70	0.9613710555	0.1960688396
71	0.9630032644	0.1935991615
72	0.9635473341	0.1915105359
73	0.9650435256	0.1898238583
74	0.9644994559	0.1883030789
75	0.9655875952	0.1865991577
76	0.9673558215	0.1845563357
77	0.9683079434	0.1817729238
78	0.9684439608	0.180077912
79	0.9683079434	0.1775215612
80	0.9691240479	0.1751555224
81	0.9706202394	0.1728850798
82	0.9710282916	0.1709587226
83	0.9718443961	0.1684306496
84	0.9732045702	0.166814029
85	0.9740206746	0.1653882263
86	0.9747007617	0.1636379635
87	0.9738846572	0.1617731251
88	0.9745647443	0.1604852985
89	0.9753808487	0.1594208371
90	0.9756528836	0.157892759
91	0.9772850925	0.1563243988
92	0.9776931447	0.1552509577
93	0.9779651795	0.1536670874
94	0.9785092492	0.151558489
95	0.9795973885	0.1501327585
96	0.9802774755	0.1488380544
97	0.9798694233	0.1473088159
98	0.9805495103	0.1450662404
99	0.9805495103	0.1436988533
100	0.9806855277	0.1420480197
101	0.9809575626	0.1406321476
102	0.9813656148	0.1394327368
103	0.9823177367	0.1378697661
104	0.9828618063	0.1367011088
105	0.9823177367	0.1351517217
106	0.9831338411	0.1341482903
107	0.9836779108	0.132930867
108	0.9843579978	0.1315234443
109	0.9847660501	0.1308974291
110	0.9854461371	0.1296994902
111	0.9855821545	0.1288033665
112	0.9854461371	0.1280829809
113	0.9857181719	0.1270812202
114	0.9857181719	0.1261507517
115	0.9853101197	0.1251638197
116	0.9865342764	0.1239323364
117	0.9862622416	0.1230250855
118	0.986398259	0.1220998398
119	0.9868063112	0.121146129
120	0.9876224157	0.120198369
121	0.9876224157	0.1191637671
122	0.9881664853	0.118120219
123	0.988710555	0.1168241901
124	0.988710555	0.1159307161
125	0.9888465724	0.1147978917
126	0.9892546246	0.1138730615
127	0.9899347116	0.1129611214
128	0.9899347116	0.1121658172
129	0.9902067465	0.1115016139
130	0.9900707291	0.1102020911
131	0.9900707291	0.1093683949
132	0.9900707291	0.108493281
133	0.9902067465	0.1077303962
134	0.9902067465	0.1068805034
135	0.9906147987	0.1060644158
136	0.9907508161	0.105443758
137	0.9911588683	0.1043345383
138	0.991702938	0.1033337219
139	0.991702938	0.1028552794
140	0.9921109902	0.1019567377
141	0.9918389554	0.1007744542
142	0.9925190424	0.09995777271
143	0.9933351469	0.09928306732
144	0.9933351469	0.09833198701
145	0.9934711643	0.09755347736
146	0.9937431991	0.09695751872
147	0.9937431991	0.0959199151
148	0.9937431991	0.09549163977
149	0.9938792165	0.09479501767
150	0.9942872688	0.09411447018
151	0.9940152339	0.09347077973
152	0.9941512514	0.09277581922
153	0.9948313384	0.09194397347
154	0.9949673558	0.09156658107
155	0.994695321	0.0910038466
156	0.9944232862	0.09027125608
157	0.9944232862	0.08962787724
158	0.994695321	0.08919944287
159	0.9948313384	0.08842345873
160	0.9949673558	0.08795922311
161	0.9952393906	0.08714910562
162	0.9952393906	0.08634307989
163	0.9953754081	0.08574363241
164	0.9955114255	0.08518048913
165	0.9955114255	0.08465862392
166	0.9952393906	0.08410961014
167	0.9953754081	0.083343892
168	0.9956474429	0.08249050858
169	0.9959194777	0.08194747733
170	0.9960554951	0.08145961596
171	0.9960554951	0.08095788786
172	0.9961915125	0.08055473377
173	0.9960554951	0.08004092596
174	0.9963275299	0.07952901979
175	0.9964635473	0.07921859837
176	0.9964635473	0.07875069981
177	0.9967355822	0.07823344396
178	0.9972796518	0.07793243228
179	0.9974156692	0.07748738051
180	0.9971436344	0.07700358063
181	0.9975516866	0.07652665054
182	0.9974156692	0.07595835572
183	0.9974156692	0.07545092095
184	0.9974156692	0.07490148494
185	0.997687704	0.07437193413
186	0.9975516866	0.07396957041
187	0.9979597388	0.07350315958
188	0.9979597388	0.07301749906
189	0.9980957563	0.07264756178
190	0.9982317737	0.07221620012
191	0.9982317737	0.0717769075
192	0.9983677911	0.07119041259
193	0.9985038085	0.07071161639
194	0.9985038085	0.07028252619
195	0.9985038085	0.06997808801
196	0.9983677911	0.06972225249
197	0.9986398259	0.06920453624
198	0.9986398259	0.06890610061
199	0.9986398259	0.06861275217
200	0.9986398259	0.06824661277
201	0.9985038085	0.06782545833
202	0.9985038085	0.06748206022
203	0.9983677911	0.06703180762
204	0.9986398259	0.06674546925
205	0.9986398259	0.06641222434
206	0.9986398259	0.06591918198
207	0.9986398259	0.06543609772
208	0.9989118607	0.06496595146
209	0.9987758433	0.06457955276
210	0.9987758433	0.06418205692
211	0.9989118607	0.06375290253
212	0.9990478781	0.06339700519
213	0.9989118607	0.0628140989
214	0.9990478781	0.06240842844
215	0.9990478781	0.06204522189
216	0.9990478781	0.06149775804
217	0.9991838955	0.06128044276
218	0.9993199129	0.0610048092
219	0.9993199129	0.06069851782
220	0.9991838955	0.06038813345
221	0.9993199129	0.059744917
222	0.9993199129	0.05959549738
223	0.9994559304	0.05924138668
224	0.9994559304	0.05872682796
225	0.9994559304	0.05851582515
226	0.9997279652	0.05807283138
227	0.9997279652	0.0577777159
228	0.9997279652	0.05753743893
229	0.9997279652	0.05717348959
230	0.9997279652	0.05669207972
231	0.9997279652	0.05622404084
232	0.9997279652	0.05586037382
233	0.9997279652	0.05551283916
234	0.9997279652	0.05527056897
235	0.9997279652	0.05461334512
236	0.9997279652	0.05443015089
237	0.9997279652	0.05408401893
238	0.9995919478	0.05367607822
239	0.9997279652	0.05317206747
240	0.9998639826	0.05276918981
241	1	0.05248089228
242	0.9998639826	0.05210496688
243	1	0.05190847487
244	1	0.05161962586
245	1	0.05133439767
246	1	0.05106124499
247	1	0.05079595728
248	1	0.05050641234
249	1	0.05016386259
250	1	0.04991982793
251	1	0.04959024934
252	1	0.04941222248
253	1	0.04930560575
254	1	0.04895462023
255	1	0.04864944493
256	1	0.04852099
257	1	0.04827353911
258	1	0.04802050039
259	1	0.04770465081
260	1	0.04753831809
261	1	0.047205741
262	1	0.04688702582
263	1	0.0466073233
264	1	0.04640183172
265	1	0.04611530993
266	1	0.04576171363
267	1	0.04553721105
268	1	0.04533349412
269	1	0.04501815657
270	1	0.04482409182
271	1	0.04459941063
272	1	0.04443424303
273	1	0.04420627862
274	1	0.04394513174
275	1	0.04374509676
276	1	0.04352587904
277	1	0.0431272773
278	1	0.04298070098
279	1	0.04284094683
280	1	0.04266141073
281	1	0.04242433172
282	1	0.04210564244
283	1	0.04184722963
284	1	0.04161640984
285	1	0.04140837126
286	1	0.04122785802
287	1	0.04108181687
288	1	0.04090671314
289	1	0.04062684443
290	1	0.04047841705
291	1	0.0402724929
292	1	0.04002519173
293	1	0.03980257223
294	1	0.03941928784
295	1	0.03916455367
296	1	0.03893703792
297	1	0.03871662079
298	1	0.03855789719
299	1	0.03841402591
300	1	0.03826153355
301	1	0.03794877373
302	1	0.03778610006
303	1	0.03762786662
304	1	0.03749199946
305	1	0.03730797221
306	1	0.03706631258
307	1	0.03682811528
308	1	0.03667341253
309	1	0.03637007677
310	1	0.03622530261
311	1	0.03603812098
312	1	0.0359242138
313	1	0.03577521561
314	1	0.03559541199
315	1	0.03543233836
316	1	0.03524023225
317	1	0.0351064329
318	1	0.03489495702
319	1	0.03476488347
320	1	0.03457343803
321	1	0.03436035361
322	1	0.03423758737
323	1	0.03409194951
324	1	0.03392291987
325	1	0.03376624515
326	1	0.03358529432
327	1	0.03344203346
328	1	0.03309243468
329	1	0.03300447486
330	1	0.03292805209
331	1	0.0326905142
332	1	0.03247092369
333	1	0.03229687043
334	1	0.03210618575
335	1	0.03197095198
336	1	0.03183729887
337	1	0.03168211419
338	1	0.03149503858
339	1	0.03137179964
340	1	0.03121607399
341	1	0.03103614873
342	1	0.03092630187
343	1	0.03075345397
344	1	0.0305847643
345	1	0.0303532955
346	1	0.03025222645
347	1	0.03009131774
348	1	0.02992828446
349	1	0.02974796867
350	1	0.02956637654
351	1	0.02937887083
352	1	0.02924394525
353	1	0.029155448
354	1	0.02898997184
355	1	0.02883302329
356	1	0.02873472452
357	1	0.02853739766
358	1	0.02841248713
359	1	0.02824583088
360	1	0.02800728122
361	1	0.02789188808
362	1	0.02775341101
363	1	0.02764439151
364	1	0.02751975847
365	1	0.0273513493
366	1	0.02718985361
367	1	0.0270686204
368	1	0.02694017499
369	1	0.02686335161
370	1	0.02676268845
371	1	0.02665473497
372	1	0.02656565883
373	1	0.02643560098
374	1	0.02632248021
375	1	0.026211829
376	1	0.02609009496
377	1	0.0259691263
378	1	0.02582789011
379	1	0.02577092233
380	1	0.02561718788
381	1	0.02552896368
382	1	0.02541957838
383	1	0.02528648872
384	1	0.02513406295
385	1	0.02501291984
386	1	0.02498375764
387	1	0.02486367366
388	1	0.02476550128
389	1	0.02467607228
390	1	0.02453065309
391	1	0.02435491639
392	1	0.024243878
393	1	0.02416436024
394	1	0.0240301143
395	1	0.02389321025
396	1	0.02381380115
397	1	0.02366916334
398	1	0.02356129775
399	1	0.02349382588
400	1	0.02341181906
401	1	0.02334657441
402	1	0.02326593712
403	1	0.02316981572
404	1	0.02309393088
405	1	0.02295214233
406	1	0.02283833116
407	1	0.02271661665
408	1	0.02263285566
409	1	0.02249976928
410	1	0.02241909785
411	1	0.02230896095
412	1	0.02225332761
413	1	0.02216503415
414	1	0.02207758507
415	1	0.021934355
416	1	0.02184244937
417	1	0.02173294766
418	1	0.02166457651
419	1	0.02155270704
420	1	0.02145047224
421	1	0.02134721514
422	1	0.02126859272
423	1	0.02116240399
424	1	0.02111912791
425	1	0.0210661565
426	1	0.02094074896
427	1	0.02085271321
428	1	0.02071586641
429	1	0.02062944834
430	1	0.02054842254
431	1	0.02046101596
432	1	0.02034839724
433	1	0.02019539261
434	1	0.02009616564
435	1	0.02002104599
436	1	0.01991689013
437	1	0.0198071312
438	1	0.01968842127
439	1	0.019603976
440	1	0.01943550394
441	1	0.01936100279
442	1	0.0192873562
443	1	0.01921704883
444	1	0.01913012292
445	1	0.01906600114
446	1	0.01895592688
447	1	0.0188635735
448	1	0.01879332179
449	1	0.01869069966
450	1	0.01856368852
451	1	0.01851857769
452	1	0.01845389116
453	1	0.01842181899
454	1	0.01836734302
455	1	0.01829939803
456	1	0.01820779497
457	1	0.01812615199
458	1	0.01806361714
459	1	0.01802240667
460	1	0.01794184084
461	1	0.01789149725
462	1	0.01783976531
463	1	0.01775918809
464	1	0.01768049845
465	1	0.01764885269
466	1	0.01759338901
467	1	0.01753098779
468	1	0.01748156271
469	1	0.01742884159
470	1	0.01734647381
471	1	0.0172636864
472	1	0.01716181137
473	1	0.01711257495
474	1	0.01700883209
475	1	0.01696229363
476	1	0.01686838908
477	1	0.01677114024
478	1	0.01668316774
479	1	0.01659755273
480	1	0.01648552481
481	1	0.01641703269
482	1	0.01637576819
483	1	0.01633530395
484	1	0.01627155418
485	1	0.01618595076
486	1	0.01614037997
487	1	0.01605858666
488	1	0.01600139364
489	1	0.0159404087
490	1	0.01588911797
491	1	0.01583334885
492	1	0.01577787295
493	1	0.01572016841
494	1	0.01563688628
495	1	0.01556873888
496	1	0.01551097932
497	1	0.01543468061
498	1	0.01535611292
499	1	0.01529847939
